…
iris_with_missing <- iris %>%
  map_df(~replace(.x, sample(1:150, 20), NA)) %>%
  mutate(species = as.character(Species))
```

Writing function to replace missing values

``` r
#first testing code
iris_with_missing %>%
  mutate(Sepal.Length = ifelse(is.na(Sepal.Length), mean(Sepal.Length, na.rm = TRUE), Sepal.Length), species = ifelse(is.na(species), "virginica", species)) 
```

    ## # A tibble: 150 × 6
    ##    Sepal.Length Sepal.Width Petal.Length Petal.Width Species species
    ##           <dbl>       <dbl>        <dbl>       <dbl> <fct>   <chr>  
    ##  1         5.1          3.5          1.4         0.2 setosa  setosa 
    ##  2         4.9          3            1.4         0.2 setosa  setosa 
    ##  3         4.7          3.2          1.3         0.2 setosa  setosa 
    ##  4         4.6          3.1          1.5        NA   setosa  setosa 
    ##  5         5            3.6          1.4         0.2 setosa  setosa 
    ##  6         5.4          3.9          1.7         0.4 setosa  setosa 
    ##  7         5.82         3.4          1.4         0.3 setosa  setosa 
    ##  8         5            3.4          1.5         0.2 setosa  setosa 
    ##  9         4.4          2.9          1.4         0.2 setosa  setosa 
    ## 10         4.9          3.1         NA           0.1 setosa  setosa 
    ## # … with 140 more rows
…
